<?xml version="1.0" encoding="UTF-8" standalone="no"?>
<svg
   xmlns:dc="http://purl.org/dc/elements/1.1/"
   xmlns:cc="http://creativecommons.org/ns#"
   xmlns:rdf="http://www.w3.org/1999/02/22-rdf-syntax-ns#"
   xmlns:svg="http://www.w3.org/2000/svg"
   xmlns="http://www.w3.org/2000/svg"
   xmlns:sodipodi="http://sodipodi.sourceforge.net/DTD/sodipodi-0.dtd"
   xmlns:inkscape="http://www.inkscape.org/namespaces/inkscape"
   version="1.1"
   width="26.920612"
   height="26.920612"
   viewBox="0 0 26.920401 26.920401"
   enable-background="new 0 0 76.01 76.01"
   xml:space="preserve"
   id="svg4"
   sodipodi:docname="voldown.svg"
   inkscape:version="0.92.2 5c3e80d, 2017-08-06"><metadata
     id="metadata10"><rdf:RDF><cc:Work
         rdf:about=""><dc:format>image/svg+xml</dc:format><dc:type
           rdf:resource="http://purl.org/dc/dcmitype/StillImage" /></cc:Work></rdf:RDF></metadata><defs
     id="defs8" /><sodipodi:namedview
     pagecolor="#ffffff"
     bordercolor="#666666"
     borderopacity="1"
     objecttolerance="10"
     gridtolerance="10"
     guidetolerance="10"
     inkscape:pageopacity="0"
     inkscape:pageshadow="2"
     inkscape:window-width="798"
     inkscape:window-height="871"
     id="namedview6"
     showgrid="false"
     inkscape:measure-start="0,0"
     inkscape:measure-end="0,0"
     inkscape:zoom="2.1954465"
     inkscape:cx="21.497038"
     inkscape:cy="14.252412"
     inkscape:window-x="2400"
     inkscape:window-y="27"
     inkscape:window-maximized="0"
     inkscape:current-layer="svg4" /><path
     d="M 3.1671,7.9178 9.5013,7.9177 19.0026,0 V 26.9204 L 9.5013,17.4191 H 3.1671 C 1.418,17.4191 0,16.0011 0,14.252 V 11.0849 C 0,9.3357 1.418,7.9178 3.1671,7.9178 Z m 23.7533,4.7506 c 0,2.1114 -1.3774,3.9011 -3.2827,4.5195 L 22.1698,14.252 c 0.8745,0 1.5835,-0.709 1.5835,-1.5836 0,-0.8746 -0.709,-1.5835 -1.5835,-1.5835 l 1.4679,-2.936 c 1.9053,0.6184 3.2827,2.4081 3.2827,4.5195 z"
     id="path2"
     inkscape:connector-curvature="0"
     style="fill:#000000;fill-opacity:1;stroke-width:0.2;stroke-linejoin:round" /></svg>