<?xml version="1.0" encoding="UTF-8" standalone="no"?>
<svg
   xmlns:dc="http://purl.org/dc/elements/1.1/"
   xmlns:cc="http://creativecommons.org/ns#"
   xmlns:rdf="http://www.w3.org/1999/02/22-rdf-syntax-ns#"
   xmlns:svg="http://www.w3.org/2000/svg"
   xmlns="http://www.w3.org/2000/svg"
   xmlns:sodipodi="http://sodipodi.sourceforge.net/DTD/sodipodi-0.dtd"
   xmlns:inkscape="http://www.inkscape.org/namespaces/inkscape"
   version="1.1"
   width="38.000099"
   height="36"
   viewBox="0 0 38.000099 36"
   enable-background="new 0 0 76.00 76.00"
   xml:space="preserve"
   id="svg4"
   sodipodi:docname="word.svg"
   inkscape:version="0.92.2 5c3e80d, 2017-08-06"><metadata
     id="metadata10"><rdf:RDF><cc:Work
         rdf:about=""><dc:format>image/svg+xml</dc:format><dc:type
           rdf:resource="http://purl.org/dc/dcmitype/StillImage" /></cc:Work></rdf:RDF></metadata><defs
     id="defs8" /><sodipodi:namedview
     pagecolor="#ffffff"
     bordercolor="#666666"
     borderopacity="1"
     objecttolerance="10"
     gridtolerance="10"
     guidetolerance="10"
     inkscape:pageopacity="0"
     inkscape:pageshadow="2"
     inkscape:window-width="798"
     inkscape:window-height="871"
     id="namedview6"
     showgrid="false"
     inkscape:zoom="3.1052632"
     inkscape:cx="19.644168"
     inkscape:cy="18"
     inkscape:window-x="2400"
     inkscape:window-y="27"
     inkscape:window-maximized="0"
     inkscape:current-layer="svg4" /><path
     d="m 23.0001,4 h 15 v 28 h -15 V 29 H 35 l 1e-4,-2 h -12 v -2 h 12 v -2 h -12 v -2 h 12 v -2 h -12 v -2 h 12 v -2 h -12 v -2 h 12 L 35,11 H 23 V 9 h 12 l 1e-4,-2 h -12 z M 0,3.5001 22.0001,0 V 36 L 0,32.5 Z m 17.8801,8.6261 -2.3376,0.1249 -1.5778,9.5847 -0.0297,-0.0011 c -0.4034,-3.167 -1.1939,-6.2729 -1.8403,-9.3994 L 9.6149,12.5678 7.5381,21.6211 7.4946,21.6195 C 7.1812,18.638 6.4795,15.7097 5.9147,12.7655 l -2.5302,0.1352 2.7049,11.1469 2.6756,0.1648 1.9224,-8.7925 0.0275,-7e-4 c 0.3743,3.052 1.2156,6.0289 1.8867,9.0296 l 2.5677,0.1582 z"
     id="path2"
     inkscape:connector-curvature="0"
     style="fill:#000000;fill-opacity:1;stroke-width:0.2;stroke-linejoin:round" /></svg>